Usage: add(i,j)

Test Case 1: add: PASSED (SHOULD signal error, DID)

Usage: add(i,j)

Test Case 2: add: PASSED (SHOULD signal error, DID)

Stack Contents:
(0)[String_Type]:hi there!

Usage: add(i,j)

Test Case 3: add: PASSED (SHOULD signal error, DID)

Stack Contents:
(0)[Integer_Type]:2


Test Case 4: add: PASSED (SHOULD NOT signal error, DID NOT)

Stack Contents:
(0)[Integer_Type]:5

S-Lang Error: Type Mismatch: String_Type + Integer_Type is not possible

Test Case 5: add: PASSED (SHOULD signal error, DID)


Test Case 6: add: PASSED (SHOULD NOT signal error, DID NOT)

Stack Contents:
(0)[String_Type]:hello there!


=============== add Test Summary ===============

		Number of Failures: 0
		Number of Passes  : 6

